-- Merging decision tree log ---
manifest
ADDED from /Users/abhinav/AndroidStudioProjects/iora/android/app/src/main/AndroidManifest.xml:1:1-48:12
INJECTED from /Users/abhinav/AndroidStudioProjects/iora/android/app/src/main/AndroidManifest.xml:1:1-48:12
INJECTED from /Users/abhinav/AndroidStudioProjects/iora/android/app/src/main/AndroidManifest.xml:1:1-48:12
INJECTED from /Users/abhinav/AndroidStudioProjects/iora/android/app/src/main/AndroidManifest.xml:1:1-48:12
MERGED from /Users/abhinav/AndroidStudioProjects/iora/android/app/src/main/AndroidManifest.xml:1:1-48:12
MERGED from [:firebase_messaging] /Users/abhinav/AndroidStudioProjects/iora/build/firebase_messaging/intermediates/library_manifest/debug/AndroidManifest.xml:2:1-20:12
MERGED from [com.google.firebase:firebase-messaging:20.3.0] /Users/abhinav/.gradle/caches/transforms-2/files-2.1/164855cba05f8f2ade7d8c38e6002759/jetified-firebase-messaging-20.3.0/AndroidManifest.xml:17:1-45:12
MERGED from [com.google.firebase:firebase-iid:20.3.0] /Users/abhinav/.gradle/caches/transforms-2/files-2.1/16ff0cf0577ffee81fbb961f31e4a15f/firebase-iid-20.3.0/AndroidManifest.xml:17:1-47:12
MERGED from [com.google.android.gms:play-services-cloud-messaging:16.0.0] /Users/abhinav/.gradle/caches/transforms-2/files-2.1/56b20d2680d3becb2b1e2898e0d7e68f/play-services-cloud-messaging-16.0.0/AndroidManifest.xml:2:1-13:12
MERGED from [com.google.android.gms:play-services-stats:17.0.0] /Users/abhinav/.gradle/caches/transforms-2/files-2.1/d1944091f7ff0945d4c66df681b95990/play-services-stats-17.0.0/AndroidManifest.xml:2:1-9:12
MERGED from [com.google.firebase:firebase-datatransport:17.0.3] /Users/abhinav/.gradle/caches/transforms-2/files-2.1/d61b137bc916b8e36dc814411fa98fb7/firebase-datatransport-17.0.3/AndroidManifest.xml:15:1-34:12
MERGED from [com.google.firebase:firebase-installations:16.3.3] /Users/abhinav/.gradle/caches/transforms-2/files-2.1/48816b7743965e6514f5f46b21b35c7c/firebase-installations-16.3.3/AndroidManifest.xml:2:1-23:12
MERGED from [com.google.firebase:firebase-common:19.3.0] /Users/abhinav/.gradle/caches/transforms-2/files-2.1/bf906e7d37cc093574ca5862687568e6/jetified-firebase-common-19.3.0/AndroidManifest.xml:15:1-39:12
MERGED from [com.google.firebase:firebase-installations-interop:16.0.0] /Users/abhinav/.gradle/caches/transforms-2/files-2.1/cfb77ebce80acd294133e8ae4003dc27/firebase-installations-interop-16.0.0/AndroidManifest.xml:15:1-23:12
MERGED from [com.google.firebase:firebase-iid-interop:17.0.0] /Users/abhinav/.gradle/caches/transforms-2/files-2.1/5c26768f40c4f689e9b19c82b9e39647/firebase-iid-interop-17.0.0/AndroidManifest.xml:2:1-10:12
MERGED from [com.google.android.gms:play-services-base:17.0.0] /Users/abhinav/.gradle/caches/transforms-2/files-2.1/9a6a440fae8500321f7e065f9575f81d/play-services-base-17.0.0/AndroidManifest.xml:17:1-29:12
MERGED from [com.google.android.gms:play-services-tasks:17.0.0] /Users/abhinav/.gradle/caches/transforms-2/files-2.1/0bef4825910dfde9d1394554b46b96ad/play-services-tasks-17.0.0/AndroidManifest.xml:2:1-9:12
MERGED from [com.google.firebase:firebase-measurement-connector:18.0.0] /Users/abhinav/.gradle/caches/transforms-2/files-2.1/17ae1d43c5d34951218770dd439cf555/firebase-measurement-connector-18.0.0/AndroidManifest.xml:17:1-25:12
MERGED from [com.google.android.gms:play-services-basement:17.0.0] /Users/abhinav/.gradle/caches/transforms-2/files-2.1/8d186186a88bad6fd5383489af579974/jetified-play-services-basement-17.0.0/AndroidManifest.xml:17:1-28:12
MERGED from [androidx.fragment:fragment:1.1.0] /Users/abhinav/.gradle/caches/transforms-2/files-2.1/930ba79d9afd52964b42c14f0053fe4b/fragment-1.1.0/AndroidManifest.xml:17:1-24:12
MERGED from [androidx.viewpager:viewpager:1.0.0] /Users/abhinav/.gradle/caches/transforms-2/files-2.1/6dcfe9c402810aa38a8828de540d52b6/viewpager-1.0.0/AndroidManifest.xml:17:1-22:12
MERGED from [androidx.legacy:legacy-support-core-utils:1.0.0] /Users/abhinav/.gradle/caches/transforms-2/files-2.1/4b650d79e6802d147079650329ad58c2/legacy-support-core-utils-1.0.0/AndroidManifest.xml:17:1-22:12
MERGED from [androidx.loader:loader:1.0.0] /Users/abhinav/.gradle/caches/transforms-2/files-2.1/ee6b401f71594174ea6d12f24ac8e371/loader-1.0.0/AndroidManifest.xml:17:1-22:12
MERGED from [androidx.activity:activity:1.0.0] /Users/abhinav/.gradle/caches/transforms-2/files-2.1/bb2fa52e9b31650bfc5a6ae665192ca9/activity-1.0.0/AndroidManifest.xml:17:1-24:12
MERGED from [androidx.customview:customview:1.0.0] /Users/abhinav/.gradle/caches/transforms-2/files-2.1/7daa265c4096fa6e90d7a6899e13f8b4/customview-1.0.0/AndroidManifest.xml:17:1-22:12
MERGED from [androidx.core:core:1.1.0] /Users/abhinav/.gradle/caches/transforms-2/files-2.1/b011d4b5d2ec7eea4ff52e346e1e6e65/core-1.1.0/AndroidManifest.xml:17:1-26:12
MERGED from [androidx.lifecycle:lifecycle-runtime:2.2.0] /Users/abhinav/.gradle/caches/transforms-2/files-2.1/7ef2e217d521f149418b0f2048edfbf2/lifecycle-runtime-2.2.0/AndroidManifest.xml:17:1-24:12
MERGED from [androidx.savedstate:savedstate:1.0.0] /Users/abhinav/.gradle/caches/transforms-2/files-2.1/762ad15499b76dd30f976b7cf1343124/savedstate-1.0.0/AndroidManifest.xml:17:1-24:12
MERGED from [androidx.lifecycle:lifecycle-livedata:2.0.0] /Users/abhinav/.gradle/caches/transforms-2/files-2.1/cf85dc30ab6cacc9944b3909bc2d8d12/lifecycle-livedata-2.0.0/AndroidManifest.xml:17:1-22:12
MERGED from [androidx.lifecycle:lifecycle-livedata-core:2.0.0] /Users/abhinav/.gradle/caches/transforms-2/files-2.1/815016ef3aebfedeaa2d6423587d9f8e/lifecycle-livedata-core-2.0.0/AndroidManifest.xml:17:1-22:12
MERGED from [com.google.android.datatransport:transport-backend-cct:2.2.0] /Users/abhinav/.gradle/caches/transforms-2/files-2.1/e49617b834d5223725efc2b50555e05b/transport-backend-cct-2.2.0/AndroidManifest.xml:15:1-38:12
MERGED from [com.google.android.datatransport:transport-runtime:2.2.0] /Users/abhinav/.gradle/caches/transforms-2/files-2.1/6fb88e117603281ede03dc0187fc04f0/transport-runtime-2.2.0/AndroidManifest.xml:15:1-41:12
MERGED from [com.google.firebase:firebase-components:16.0.0] /Users/abhinav/.gradle/caches/transforms-2/files-2.1/66045b78b04f65ec04b23b0084d0a36c/jetified-firebase-components-16.0.0/AndroidManifest.xml:15:1-23:12
MERGED from [com.google.firebase:firebase-encoders-json:16.0.0] /Users/abhinav/.gradle/caches/transforms-2/files-2.1/ace545502c648ac2fad9deaf0630e297/firebase-encoders-json-16.0.0/AndroidManifest.xml:15:1-23:12
MERGED from [androidx.localbroadcastmanager:localbroadcastmanager:1.0.0] /Users/abhinav/.gradle/caches/transforms-2/files-2.1/3c765db1ed5a358b855c88f3ebc4e5cb/localbroadcastmanager-1.0.0/AndroidManifest.xml:17:1-22:12
MERGED from [androidx.arch.core:core-runtime:2.0.0] /Users/abhinav/.gradle/caches/transforms-2/files-2.1/177cc4424ff59fc27b8bf556be7daa63/core-runtime-2.0.0/AndroidManifest.xml:17:1-22:12
MERGED from [androidx.versionedparcelable:versionedparcelable:1.1.0] /Users/abhinav/.gradle/caches/transforms-2/files-2.1/28c4c5bdafea2ddf3e85d959ac73b331/versionedparcelable-1.1.0/AndroidManifest.xml:17:1-27:12
MERGED from [androidx.lifecycle:lifecycle-viewmodel:2.1.0] /Users/abhinav/.gradle/caches/transforms-2/files-2.1/c5d8e5042c76861fbbea20acc6f01eca/lifecycle-viewmodel-2.1.0/AndroidManifest.xml:17:1-22:12
MERGED from [androidx.documentfile:documentfile:1.0.0] /Users/abhinav/.gradle/caches/transforms-2/files-2.1/c0bcbfb021564b3b41a4611a164498f0/documentfile-1.0.0/AndroidManifest.xml:17:1-22:12
MERGED from [androidx.print:print:1.0.0] /Users/abhinav/.gradle/caches/transforms-2/files-2.1/234d8388d3548014233e9d14d722b8ec/print-1.0.0/AndroidManifest.xml:17:1-22:12
MERGED from [com.google.android.datatransport:transport-api:2.2.0] /Users/abhinav/.gradle/caches/transforms-2/files-2.1/497b1c21e220f9880c8938f66260e356/transport-api-2.2.0/AndroidManifest.xml:15:1-22:12
INJECTED from /Users/abhinav/AndroidStudioProjects/iora/android/app/src/debug/AndroidManifest.xml:1:1-7:12
INJECTED from /Users/abhinav/AndroidStudioProjects/iora/android/app/src/debug/AndroidManifest.xml:1:1-7:12
INJECTED from /Users/abhinav/AndroidStudioProjects/iora/android/app/src/debug/AndroidManifest.xml:1:1-7:12
	package
		ADDED from /Users/abhinav/AndroidStudioProjects/iora/android/app/src/main/AndroidManifest.xml:2:5-28
		INJECTED from /Users/abhinav/AndroidStudioProjects/iora/android/app/src/main/AndroidManifest.xml
		INJECTED from /Users/abhinav/AndroidStudioProjects/iora/android/app/src/debug/AndroidManifest.xml
	android:versionName
		INJECTED from /Users/abhinav/AndroidStudioProjects/iora/android/app/src/main/AndroidManifest.xml
		ADDED from /Users/abhinav/AndroidStudioProjects/iora/android/app/src/main/AndroidManifest.xml:1:1-48:12
		INJECTED from /Users/abhinav/AndroidStudioProjects/iora/android/app/src/debug/AndroidManifest.xml
	android:versionCode
		INJECTED from /Users/abhinav/AndroidStudioProjects/iora/android/app/src/main/AndroidManifest.xml
		ADDED from /Users/abhinav/AndroidStudioProjects/iora/android/app/src/main/AndroidManifest.xml:1:1-48:12
		INJECTED from /Users/abhinav/AndroidStudioProjects/iora/android/app/src/debug/AndroidManifest.xml
	xmlns:android
		ADDED from /Users/abhinav/AndroidStudioProjects/iora/android/app/src/main/AndroidManifest.xml:1:11-69
application
ADDED from /Users/abhinav/AndroidStudioProjects/iora/android/app/src/main/AndroidManifest.xml:8:5-47:19
MERGED from [:firebase_messaging] /Users/abhinav/AndroidStudioProjects/iora/build/firebase_messaging/intermediates/library_manifest/debug/AndroidManifest.xml:7:5-18:19
MERGED from [:firebase_messaging] /Users/abhinav/AndroidStudioProjects/iora/build/firebase_messaging/intermediates/library_manifest/debug/AndroidManifest.xml:7:5-18:19
MERGED from [com.google.firebase:firebase-messaging:20.3.0] /Users/abhinav/.gradle/caches/transforms-2/files-2.1/164855cba05f8f2ade7d8c38e6002759/jetified-firebase-messaging-20.3.0/AndroidManifest.xml:22:5-43:19
MERGED from [com.google.firebase:firebase-messaging:20.3.0] /Users/abhinav/.gradle/caches/transforms-2/files-2.1/164855cba05f8f2ade7d8c38e6002759/jetified-firebase-messaging-20.3.0/AndroidManifest.xml:22:5-43:19
MERGED from [com.google.firebase:firebase-iid:20.3.0] /Users/abhinav/.gradle/caches/transforms-2/files-2.1/16ff0cf0577ffee81fbb961f31e4a15f/firebase-iid-20.3.0/AndroidManifest.xml:28:5-45:19
MERGED from [com.google.firebase:firebase-iid:20.3.0] /Users/abhinav/.gradle/caches/transforms-2/files-2.1/16ff0cf0577ffee81fbb961f31e4a15f/firebase-iid-20.3.0/AndroidManifest.xml:28:5-45:19
MERGED from [com.google.android.gms:play-services-stats:17.0.0] /Users/abhinav/.gradle/caches/transforms-2/files-2.1/d1944091f7ff0945d4c66df681b95990/play-services-stats-17.0.0/AndroidManifest.xml:7:5-20
MERGED from [com.google.android.gms:play-services-stats:17.0.0] /Users/abhinav/.gradle/caches/transforms-2/files-2.1/d1944091f7ff0945d4c66df681b95990/play-services-stats-17.0.0/AndroidManifest.xml:7:5-20
MERGED from [com.google.firebase:firebase-datatransport:17.0.3] /Users/abhinav/.gradle/caches/transforms-2/files-2.1/d61b137bc916b8e36dc814411fa98fb7/firebase-datatransport-17.0.3/AndroidManifest.xml:24:5-32:19
MERGED from [com.google.firebase:firebase-datatransport:17.0.3] /Users/abhinav/.gradle/caches/transforms-2/files-2.1/d61b137bc916b8e36dc814411fa98fb7/firebase-datatransport-17.0.3/AndroidManifest.xml:24:5-32:19
MERGED from [com.google.firebase:firebase-installations:16.3.3] /Users/abhinav/.gradle/caches/transforms-2/files-2.1/48816b7743965e6514f5f46b21b35c7c/firebase-installations-16.3.3/AndroidManifest.xml:13:5-21:19
MERGED from [com.google.firebase:firebase-installations:16.3.3] /Users/abhinav/.gradle/caches/transforms-2/files-2.1/48816b7743965e6514f5f46b21b35c7c/firebase-installations-16.3.3/AndroidManifest.xml:13:5-21:19
MERGED from [com.google.firebase:firebase-common:19.3.0] /Users/abhinav/.gradle/caches/transforms-2/files-2.1/bf906e7d37cc093574ca5862687568e6/jetified-firebase-common-19.3.0/AndroidManifest.xml:25:5-37:19
MERGED from [com.google.firebase:firebase-common:19.3.0] /Users/abhinav/.gradle/caches/transforms-2/files-2.1/bf906e7d37cc093574ca5862687568e6/jetified-firebase-common-19.3.0/AndroidManifest.xml:25:5-37:19
MERGED from [com.google.firebase:firebase-iid-interop:17.0.0] /Users/abhinav/.gradle/caches/transforms-2/files-2.1/5c26768f40c4f689e9b19c82b9e39647/firebase-iid-interop-17.0.0/AndroidManifest.xml:7:5-8:19
MERGED from [com.google.firebase:firebase-iid-interop:17.0.0] /Users/abhinav/.gradle/caches/transforms-2/files-2.1/5c26768f40c4f689e9b19c82b9e39647/firebase-iid-interop-17.0.0/AndroidManifest.xml:7:5-8:19
MERGED from [com.google.android.gms:play-services-base:17.0.0] /Users/abhinav/.gradle/caches/transforms-2/files-2.1/9a6a440fae8500321f7e065f9575f81d/play-services-base-17.0.0/AndroidManifest.xml:22:5-27:19
MERGED from [com.google.android.gms:play-services-base:17.0.0] /Users/abhinav/.gradle/caches/transforms-2/files-2.1/9a6a440fae8500321f7e065f9575f81d/play-services-base-17.0.0/AndroidManifest.xml:22:5-27:19
MERGED from [com.google.android.gms:play-services-tasks:17.0.0] /Users/abhinav/.gradle/caches/transforms-2/files-2.1/0bef4825910dfde9d1394554b46b96ad/play-services-tasks-17.0.0/AndroidManifest.xml:7:5-20
MERGED from [com.google.android.gms:play-services-tasks:17.0.0] /Users/abhinav/.gradle/caches/transforms-2/files-2.1/0bef4825910dfde9d1394554b46b96ad/play-services-tasks-17.0.0/AndroidManifest.xml:7:5-20
MERGED from [com.google.firebase:firebase-measurement-connector:18.0.0] /Users/abhinav/.gradle/caches/transforms-2/files-2.1/17ae1d43c5d34951218770dd439cf555/firebase-measurement-connector-18.0.0/AndroidManifest.xml:22:5-23:19
MERGED from [com.google.firebase:firebase-measurement-connector:18.0.0] /Users/abhinav/.gradle/caches/transforms-2/files-2.1/17ae1d43c5d34951218770dd439cf555/firebase-measurement-connector-18.0.0/AndroidManifest.xml:22:5-23:19
MERGED from [com.google.android.gms:play-services-basement:17.0.0] /Users/abhinav/.gradle/caches/transforms-2/files-2.1/8d186186a88bad6fd5383489af579974/jetified-play-services-basement-17.0.0/AndroidManifest.xml:22:5-26:19
MERGED from [com.google.android.gms:play-services-basement:17.0.0] /Users/abhinav/.gradle/caches/transforms-2/files-2.1/8d186186a88bad6fd5383489af579974/jetified-play-services-basement-17.0.0/AndroidManifest.xml:22:5-26:19
MERGED from [androidx.core:core:1.1.0] /Users/abhinav/.gradle/caches/transforms-2/files-2.1/b011d4b5d2ec7eea4ff52e346e1e6e65/core-1.1.0/AndroidManifest.xml:24:5-89
MERGED from [androidx.core:core:1.1.0] /Users/abhinav/.gradle/caches/transforms-2/files-2.1/b011d4b5d2ec7eea4ff52e346e1e6e65/core-1.1.0/AndroidManifest.xml:24:5-89
MERGED from [com.google.android.datatransport:transport-backend-cct:2.2.0] /Users/abhinav/.gradle/caches/transforms-2/files-2.1/e49617b834d5223725efc2b50555e05b/transport-backend-cct-2.2.0/AndroidManifest.xml:28:5-36:19
MERGED from [com.google.android.datatransport:transport-backend-cct:2.2.0] /Users/abhinav/.gradle/caches/transforms-2/files-2.1/e49617b834d5223725efc2b50555e05b/transport-backend-cct-2.2.0/AndroidManifest.xml:28:5-36:19
MERGED from [com.google.android.datatransport:transport-runtime:2.2.0] /Users/abhinav/.gradle/caches/transforms-2/files-2.1/6fb88e117603281ede03dc0187fc04f0/transport-runtime-2.2.0/AndroidManifest.xml:25:5-39:19
MERGED from [com.google.android.datatransport:transport-runtime:2.2.0] /Users/abhinav/.gradle/caches/transforms-2/files-2.1/6fb88e117603281ede03dc0187fc04f0/transport-runtime-2.2.0/AndroidManifest.xml:25:5-39:19
MERGED from [androidx.versionedparcelable:versionedparcelable:1.1.0] /Users/abhinav/.gradle/caches/transforms-2/files-2.1/28c4c5bdafea2ddf3e85d959ac73b331/versionedparcelable-1.1.0/AndroidManifest.xml:24:5-25:19
MERGED from [androidx.versionedparcelable:versionedparcelable:1.1.0] /Users/abhinav/.gradle/caches/transforms-2/files-2.1/28c4c5bdafea2ddf3e85d959ac73b331/versionedparcelable-1.1.0/AndroidManifest.xml:24:5-25:19
	android:appComponentFactory
		ADDED from [androidx.core:core:1.1.0] /Users/abhinav/.gradle/caches/transforms-2/files-2.1/b011d4b5d2ec7eea4ff52e346e1e6e65/core-1.1.0/AndroidManifest.xml:24:18-86
	android:label
		ADDED from /Users/abhinav/AndroidStudioProjects/iora/android/app/src/main/AndroidManifest.xml:10:9-29
	android:icon
		ADDED from /Users/abhinav/AndroidStudioProjects/iora/android/app/src/main/AndroidManifest.xml:11:9-43
	android:name
		ADDED from /Users/abhinav/AndroidStudioProjects/iora/android/app/src/main/AndroidManifest.xml:9:9-57
activity#com.test.iora.MainActivity
ADDED from /Users/abhinav/AndroidStudioProjects/iora/android/app/src/main/AndroidManifest.xml:12:9-41:20
	android:launchMode
		ADDED from /Users/abhinav/AndroidStudioProjects/iora/android/app/src/main/AndroidManifest.xml:14:13-43
	android:hardwareAccelerated
		ADDED from /Users/abhinav/AndroidStudioProjects/iora/android/app/src/main/AndroidManifest.xml:17:13-47
	android:windowSoftInputMode
		ADDED from /Users/abhinav/AndroidStudioProjects/iora/android/app/src/main/AndroidManifest.xml:18:13-55
	android:configChanges
		ADDED from /Users/abhinav/AndroidStudioProjects/iora/android/app/src/main/AndroidManifest.xml:16:13-163
	android:theme
		ADDED from /Users/abhinav/AndroidStudioProjects/iora/android/app/src/main/AndroidManifest.xml:15:13-47
	android:name
		ADDED from /Users/abhinav/AndroidStudioProjects/iora/android/app/src/main/AndroidManifest.xml:13:13-41
meta-data#io.flutter.embedding.android.NormalTheme
ADDED from /Users/abhinav/AndroidStudioProjects/iora/android/app/src/main/AndroidManifest.xml:23:13-26:17
	android:resource
		ADDED from /Users/abhinav/AndroidStudioProjects/iora/android/app/src/main/AndroidManifest.xml:25:15-52
	android:name
		ADDED from /Users/abhinav/AndroidStudioProjects/iora/android/app/src/main/AndroidManifest.xml:24:15-70
meta-data#io.flutter.embedding.android.SplashScreenDrawable
ADDED from /Users/abhinav/AndroidStudioProjects/iora/android/app/src/main/AndroidManifest.xml:32:13-35:17
	android:resource
		ADDED from /Users/abhinav/AndroidStudioProjects/iora/android/app/src/main/AndroidManifest.xml:34:15-61
	android:name
		ADDED from /Users/abhinav/AndroidStudioProjects/iora/android/app/src/main/AndroidManifest.xml:33:15-79
intent-filter#action:name:FLUTTER_NOTIFICATION_CLICK+action:name:android.intent.action.MAIN+category:name:android.intent.category.LAUNCHER
ADDED from /Users/abhinav/AndroidStudioProjects/iora/android/app/src/main/AndroidManifest.xml:36:13-40:29
action#android.intent.action.MAIN
ADDED from /Users/abhinav/AndroidStudioProjects/iora/android/app/src/main/AndroidManifest.xml:37:17-68
	android:name
		ADDED from /Users/abhinav/AndroidStudioProjects/iora/android/app/src/main/AndroidManifest.xml:37:25-66
action#FLUTTER_NOTIFICATION_CLICK
ADDED from /Users/abhinav/AndroidStudioProjects/iora/android/app/src/main/AndroidManifest.xml:38:17-69
	android:name
		ADDED from /Users/abhinav/AndroidStudioProjects/iora/android/app/src/main/AndroidManifest.xml:38:25-66
category#android.intent.category.LAUNCHER
ADDED from /Users/abhinav/AndroidStudioProjects/iora/android/app/src/main/AndroidManifest.xml:39:17-76
	android:name
		ADDED from /Users/abhinav/AndroidStudioProjects/iora/android/app/src/main/AndroidManifest.xml:39:27-74
meta-data#flutterEmbedding
ADDED from /Users/abhinav/AndroidStudioProjects/iora/android/app/src/main/AndroidManifest.xml:44:9-46:33
	android:value
		ADDED from /Users/abhinav/AndroidStudioProjects/iora/android/app/src/main/AndroidManifest.xml:46:13-30
	android:name
		ADDED from /Users/abhinav/AndroidStudioProjects/iora/android/app/src/main/AndroidManifest.xml:45:13-44
uses-sdk
INJECTED from /Users/abhinav/AndroidStudioProjects/iora/android/app/src/main/AndroidManifest.xml reason: use-sdk injection requested
INJECTED from /Users/abhinav/AndroidStudioProjects/iora/android/app/src/main/AndroidManifest.xml
INJECTED from /Users/abhinav/AndroidStudioProjects/iora/android/app/src/main/AndroidManifest.xml
MERGED from [:firebase_messaging] /Users/abhinav/AndroidStudioProjects/iora/build/firebase_messaging/intermediates/library_manifest/debug/AndroidManifest.xml:5:5-44
MERGED from [:firebase_messaging] /Users/abhinav/AndroidStudioProjects/iora/build/firebase_messaging/intermediates/library_manifest/debug/AndroidManifest.xml:5:5-44
MERGED from [com.google.firebase:firebase-messaging:20.3.0] /Users/abhinav/.gradle/caches/transforms-2/files-2.1/164855cba05f8f2ade7d8c38e6002759/jetified-firebase-messaging-20.3.0/AndroidManifest.xml:20:5-44
MERGED from [com.google.firebase:firebase-messaging:20.3.0] /Users/abhinav/.gradle/caches/transforms-2/files-2.1/164855cba05f8f2ade7d8c38e6002759/jetified-firebase-messaging-20.3.0/AndroidManifest.xml:20:5-44
MERGED from [com.google.firebase:firebase-iid:20.3.0] /Users/abhinav/.gradle/caches/transforms-2/files-2.1/16ff0cf0577ffee81fbb961f31e4a15f/firebase-iid-20.3.0/AndroidManifest.xml:20:5-44
MERGED from [com.google.firebase:firebase-iid:20.3.0] /Users/abhinav/.gradle/caches/transforms-2/files-2.1/16ff0cf0577ffee81fbb961f31e4a15f/firebase-iid-20.3.0/AndroidManifest.xml:20:5-44
MERGED from [com.google.android.gms:play-services-cloud-messaging:16.0.0] /Users/abhinav/.gradle/caches/transforms-2/files-2.1/56b20d2680d3becb2b1e2898e0d7e68f/play-services-cloud-messaging-16.0.0/AndroidManifest.xml:5:5-44
MERGED from [com.google.android.gms:play-services-cloud-messaging:16.0.0] /Users/abhinav/.gradle/caches/transforms-2/files-2.1/56b20d2680d3becb2b1e2898e0d7e68f/play-services-cloud-messaging-16.0.0/AndroidManifest.xml:5:5-44
MERGED from [com.google.android.gms:play-services-stats:17.0.0] /Users/abhinav/.gradle/caches/transforms-2/files-2.1/d1944091f7ff0945d4c66df681b95990/play-services-stats-17.0.0/AndroidManifest.xml:5:5-44
MERGED from [com.google.android.gms:play-services-stats:17.0.0] /Users/abhinav/.gradle/caches/transforms-2/files-2.1/d1944091f7ff0945d4c66df681b95990/play-services-stats-17.0.0/AndroidManifest.xml:5:5-44
MERGED from [com.google.firebase:firebase-datatransport:17.0.3] /Users/abhinav/.gradle/caches/transforms-2/files-2.1/d61b137bc916b8e36dc814411fa98fb7/firebase-datatransport-17.0.3/AndroidManifest.xml:19:5-21:41
MERGED from [com.google.firebase:firebase-datatransport:17.0.3] /Users/abhinav/.gradle/caches/transforms-2/files-2.1/d61b137bc916b8e36dc814411fa98fb7/firebase-datatransport-17.0.3/AndroidManifest.xml:19:5-21:41
MERGED from [com.google.firebase:firebase-installations:16.3.3] /Users/abhinav/.gradle/caches/transforms-2/files-2.1/48816b7743965e6514f5f46b21b35c7c/firebase-installations-16.3.3/AndroidManifest.xml:6:5-8:41
MERGED from [com.google.firebase:firebase-installations:16.3.3] /Users/abhinav/.gradle/caches/transforms-2/files-2.1/48816b7743965e6514f5f46b21b35c7c/firebase-installations-16.3.3/AndroidManifest.xml:6:5-8:41
MERGED from [com.google.firebase:firebase-common:19.3.0] /Users/abhinav/.gradle/caches/transforms-2/files-2.1/bf906e7d37cc093574ca5862687568e6/jetified-firebase-common-19.3.0/AndroidManifest.xml:20:5-22:41
MERGED from [com.google.firebase:firebase-common:19.3.0] /Users/abhinav/.gradle/caches/transforms-2/files-2.1/bf906e7d37cc093574ca5862687568e6/jetified-firebase-common-19.3.0/AndroidManifest.xml:20:5-22:41
MERGED from [com.google.firebase:firebase-installations-interop:16.0.0] /Users/abhinav/.gradle/caches/transforms-2/files-2.1/cfb77ebce80acd294133e8ae4003dc27/firebase-installations-interop-16.0.0/AndroidManifest.xml:19:5-21:41
MERGED from [com.google.firebase:firebase-installations-interop:16.0.0] /Users/abhinav/.gradle/caches/transforms-2/files-2.1/cfb77ebce80acd294133e8ae4003dc27/firebase-installations-interop-16.0.0/AndroidManifest.xml:19:5-21:41
MERGED from [com.google.firebase:firebase-iid-interop:17.0.0] /Users/abhinav/.gradle/caches/transforms-2/files-2.1/5c26768f40c4f689e9b19c82b9e39647/firebase-iid-interop-17.0.0/AndroidManifest.xml:5:5-44
MERGED from [com.google.firebase:firebase-iid-interop:17.0.0] /Users/abhinav/.gradle/caches/transforms-2/files-2.1/5c26768f40c4f689e9b19c82b9e39647/firebase-iid-interop-17.0.0/AndroidManifest.xml:5:5-44
MERGED from [com.google.android.gms:play-services-base:17.0.0] /Users/abhinav/.gradle/caches/transforms-2/files-2.1/9a6a440fae8500321f7e065f9575f81d/play-services-base-17.0.0/AndroidManifest.xml:20:5-44
MERGED from [com.google.android.gms:play-services-base:17.0.0] /Users/abhinav/.gradle/caches/transforms-2/files-2.1/9a6a440fae8500321f7e065f9575f81d/play-services-base-17.0.0/AndroidManifest.xml:20:5-44
MERGED from [com.google.android.gms:play-services-tasks:17.0.0] /Users/abhinav/.gradle/caches/transforms-2/files-2.1/0bef4825910dfde9d1394554b46b96ad/play-services-tasks-17.0.0/AndroidManifest.xml:5:5-44
MERGED from [com.google.android.gms:play-services-tasks:17.0.0] /Users/abhinav/.gradle/caches/transforms-2/files-2.1/0bef4825910dfde9d1394554b46b96ad/play-services-tasks-17.0.0/AndroidManifest.xml:5:5-44
MERGED from [com.google.firebase:firebase-measurement-connector:18.0.0] /Users/abhinav/.gradle/caches/transforms-2/files-2.1/17ae1d43c5d34951218770dd439cf555/firebase-measurement-connector-18.0.0/AndroidManifest.xml:20:5-44
MERGED from [com.google.firebase:firebase-measurement-connector:18.0.0] /Users/abhinav/.gradle/caches/transforms-2/files-2.1/17ae1d43c5d34951218770dd439cf555/firebase-measurement-connector-18.0.0/AndroidManifest.xml:20:5-44
MERGED from [com.google.android.gms:play-services-basement:17.0.0] /Users/abhinav/.gradle/caches/transforms-2/files-2.1/8d186186a88bad6fd5383489af579974/jetified-play-services-basement-17.0.0/AndroidManifest.xml:20:5-44
MERGED from [com.google.android.gms:play-services-basement:17.0.0] /Users/abhinav/.gradle/caches/transforms-2/files-2.1/8d186186a88bad6fd5383489af579974/jetified-play-services-basement-17.0.0/AndroidManifest.xml:20:5-44
MERGED from [androidx.fragment:fragment:1.1.0] /Users/abhinav/.gradle/caches/transforms-2/files-2.1/930ba79d9afd52964b42c14f0053fe4b/fragment-1.1.0/AndroidManifest.xml:20:5-22:41
MERGED from [androidx.fragment:fragment:1.1.0] /Users/abhinav/.gradle/caches/transforms-2/files-2.1/930ba79d9afd52964b42c14f0053fe4b/fragment-1.1.0/AndroidManifest.xml:20:5-22:41
MERGED from [androidx.viewpager:viewpager:1.0.0] /Users/abhinav/.gradle/caches/transforms-2/files-2.1/6dcfe9c402810aa38a8828de540d52b6/viewpager-1.0.0/AndroidManifest.xml:20:5-44
MERGED from [androidx.viewpager:viewpager:1.0.0] /Users/abhinav/.gradle/caches/transforms-2/files-2.1/6dcfe9c402810aa38a8828de540d52b6/viewpager-1.0.0/AndroidManifest.xml:20:5-44
MERGED from [androidx.legacy:legacy-support-core-utils:1.0.0] /Users/abhinav/.gradle/caches/transforms-2/files-2.1/4b650d79e6802d147079650329ad58c2/legacy-support-core-utils-1.0.0/AndroidManifest.xml:20:5-44
MERGED from [androidx.legacy:legacy-support-core-utils:1.0.0] /Users/abhinav/.gradle/caches/transforms-2/files-2.1/4b650d79e6802d147079650329ad58c2/legacy-support-core-utils-1.0.0/AndroidManifest.xml:20:5-44
MERGED from [androidx.loader:loader:1.0.0] /Users/abhinav/.gradle/caches/transforms-2/files-2.1/ee6b401f71594174ea6d12f24ac8e371/loader-1.0.0/AndroidManifest.xml:20:5-44
MERGED from [androidx.loader:loader:1.0.0] /Users/abhinav/.gradle/caches/transforms-2/files-2.1/ee6b401f71594174ea6d12f24ac8e371/loader-1.0.0/AndroidManifest.xml:20:5-44
MERGED from [androidx.activity:activity:1.0.0] /Users/abhinav/.gradle/caches/transforms-2/files-2.1/bb2fa52e9b31650bfc5a6ae665192ca9/activity-1.0.0/AndroidManifest.xml:20:5-22:41
MERGED from [androidx.activity:activity:1.0.0] /Users/abhinav/.gradle/caches/transforms-2/files-2.1/bb2fa52e9b31650bfc5a6ae665192ca9/activity-1.0.0/AndroidManifest.xml:20:5-22:41
MERGED from [androidx.customview:customview:1.0.0] /Users/abhinav/.gradle/caches/transforms-2/files-2.1/7daa265c4096fa6e90d7a6899e13f8b4/customview-1.0.0/AndroidManifest.xml:20:5-44
MERGED from [androidx.customview:customview:1.0.0] /Users/abhinav/.gradle/caches/transforms-2/files-2.1/7daa265c4096fa6e90d7a6899e13f8b4/customview-1.0.0/AndroidManifest.xml:20:5-44
MERGED from [androidx.core:core:1.1.0] /Users/abhinav/.gradle/caches/transforms-2/files-2.1/b011d4b5d2ec7eea4ff52e346e1e6e65/core-1.1.0/AndroidManifest.xml:20:5-22:41
MERGED from [androidx.core:core:1.1.0] /Users/abhinav/.gradle/caches/transforms-2/files-2.1/b011d4b5d2ec7eea4ff52e346e1e6e65/core-1.1.0/AndroidManifest.xml:20:5-22:41
MERGED from [androidx.lifecycle:lifecycle-runtime:2.2.0] /Users/abhinav/.gradle/caches/transforms-2/files-2.1/7ef2e217d521f149418b0f2048edfbf2/lifecycle-runtime-2.2.0/AndroidManifest.xml:20:5-22:41
MERGED from [androidx.lifecycle:lifecycle-runtime:2.2.0] /Users/abhinav/.gradle/caches/transforms-2/files-2.1/7ef2e217d521f149418b0f2048edfbf2/lifecycle-runtime-2.2.0/AndroidManifest.xml:20:5-22:41
MERGED from [androidx.savedstate:savedstate:1.0.0] /Users/abhinav/.gradle/caches/transforms-2/files-2.1/762ad15499b76dd30f976b7cf1343124/savedstate-1.0.0/AndroidManifest.xml:20:5-22:41
MERGED from [androidx.savedstate:savedstate:1.0.0] /Users/abhinav/.gradle/caches/transforms-2/files-2.1/762ad15499b76dd30f976b7cf1343124/savedstate-1.0.0/AndroidManifest.xml:20:5-22:41
MERGED from [androidx.lifecycle:lifecycle-livedata:2.0.0] /Users/abhinav/.gradle/caches/transforms-2/files-2.1/cf85dc30ab6cacc9944b3909bc2d8d12/lifecycle-livedata-2.0.0/AndroidManifest.xml:20:5-44
MERGED from [androidx.lifecycle:lifecycle-livedata:2.0.0] /Users/abhinav/.gradle/caches/transforms-2/files-2.1/cf85dc30ab6cacc9944b3909bc2d8d12/lifecycle-livedata-2.0.0/AndroidManifest.xml:20:5-44
MERGED from [androidx.lifecycle:lifecycle-livedata-core:2.0.0] /Users/abhinav/.gradle/caches/transforms-2/files-2.1/815016ef3aebfedeaa2d6423587d9f8e/lifecycle-livedata-core-2.0.0/AndroidManifest.xml:20:5-44
MERGED from [androidx.lifecycle:lifecycle-livedata-core:2.0.0] /Users/abhinav/.gradle/caches/transforms-2/files-2.1/815016ef3aebfedeaa2d6423587d9f8e/lifecycle-livedata-core-2.0.0/AndroidManifest.xml:20:5-44
MERGED from [com.google.android.datatransport:transport-backend-cct:2.2.0] /Users/abhinav/.gradle/caches/transforms-2/files-2.1/e49617b834d5223725efc2b50555e05b/transport-backend-cct-2.2.0/AndroidManifest.xml:19:5-21:41
MERGED from [com.google.android.datatransport:transport-backend-cct:2.2.0] /Users/abhinav/.gradle/caches/transforms-2/files-2.1/e49617b834d5223725efc2b50555e05b/transport-backend-cct-2.2.0/AndroidManifest.xml:19:5-21:41
MERGED from [com.google.android.datatransport:transport-runtime:2.2.0] /Users/abhinav/.gradle/caches/transforms-2/files-2.1/6fb88e117603281ede03dc0187fc04f0/transport-runtime-2.2.0/AndroidManifest.xml:18:5-20:41
MERGED from [com.google.android.datatransport:transport-runtime:2.2.0] /Users/abhinav/.gradle/caches/transforms-2/files-2.1/6fb88e117603281ede03dc0187fc04f0/transport-runtime-2.2.0/AndroidManifest.xml:18:5-20:41
MERGED from [com.google.firebase:firebase-components:16.0.0] /Users/abhinav/.gradle/caches/transforms-2/files-2.1/66045b78b04f65ec04b23b0084d0a36c/jetified-firebase-components-16.0.0/AndroidManifest.xml:19:5-21:41
MERGED from [com.google.firebase:firebase-components:16.0.0] /Users/abhinav/.gradle/caches/transforms-2/files-2.1/66045b78b04f65ec04b23b0084d0a36c/jetified-firebase-components-16.0.0/AndroidManifest.xml:19:5-21:41
MERGED from [com.google.firebase:firebase-encoders-json:16.0.0] /Users/abhinav/.gradle/caches/transforms-2/files-2.1/ace545502c648ac2fad9deaf0630e297/firebase-encoders-json-16.0.0/AndroidManifest.xml:19:5-21:41
MERGED from [com.google.firebase:firebase-encoders-json:16.0.0] /Users/abhinav/.gradle/caches/transforms-2/files-2.1/ace545502c648ac2fad9deaf0630e297/firebase-encoders-json-16.0.0/AndroidManifest.xml:19:5-21:41
MERGED from [androidx.localbroadcastmanager:localbroadcastmanager:1.0.0] /Users/abhinav/.gradle/caches/transforms-2/files-2.1/3c765db1ed5a358b855c88f3ebc4e5cb/localbroadcastmanager-1.0.0/AndroidManifest.xml:20:5-44
MERGED from [androidx.localbroadcastmanager:localbroadcastmanager:1.0.0] /Users/abhinav/.gradle/caches/transforms-2/files-2.1/3c765db1ed5a358b855c88f3ebc4e5cb/localbroadcastmanager-1.0.0/AndroidManifest.xml:20:5-44
MERGED from [androidx.arch.core:core-runtime:2.0.0] /Users/abhinav/.gradle/caches/transforms-2/files-2.1/177cc4424ff59fc27b8bf556be7daa63/core-runtime-2.0.0/AndroidManifest.xml:20:5-44
MERGED from [androidx.arch.core:core-runtime:2.0.0] /Users/abhinav/.gradle/caches/transforms-2/files-2.1/177cc4424ff59fc27b8bf556be7daa63/core-runtime-2.0.0/AndroidManifest.xml:20:5-44
MERGED from [androidx.versionedparcelable:versionedparcelable:1.1.0] /Users/abhinav/.gradle/caches/transforms-2/files-2.1/28c4c5bdafea2ddf3e85d959ac73b331/versionedparcelable-1.1.0/AndroidManifest.xml:20:5-22:41
MERGED from [androidx.versionedparcelable:versionedparcelable:1.1.0] /Users/abhinav/.gradle/caches/transforms-2/files-2.1/28c4c5bdafea2ddf3e85d959ac73b331/versionedparcelable-1.1.0/AndroidManifest.xml:20:5-22:41
MERGED from [androidx.lifecycle:lifecycle-viewmodel:2.1.0] /Users/abhinav/.gradle/caches/transforms-2/files-2.1/c5d8e5042c76861fbbea20acc6f01eca/lifecycle-viewmodel-2.1.0/AndroidManifest.xml:20:5-44
MERGED from [androidx.lifecycle:lifecycle-viewmodel:2.1.0] /Users/abhinav/.gradle/caches/transforms-2/files-2.1/c5d8e5042c76861fbbea20acc6f01eca/lifecycle-viewmodel-2.1.0/AndroidManifest.xml:20:5-44
MERGED from [androidx.documentfile:documentfile:1.0.0] /Users/abhinav/.gradle/caches/transforms-2/files-2.1/c0bcbfb021564b3b41a4611a164498f0/documentfile-1.0.0/AndroidManifest.xml:20:5-44
MERGED from [androidx.documentfile:documentfile:1.0.0] /Users/abhinav/.gradle/caches/transforms-2/files-2.1/c0bcbfb021564b3b41a4611a164498f0/documentfile-1.0.0/AndroidManifest.xml:20:5-44
MERGED from [androidx.print:print:1.0.0] /Users/abhinav/.gradle/caches/transforms-2/files-2.1/234d8388d3548014233e9d14d722b8ec/print-1.0.0/AndroidManifest.xml:20:5-44
MERGED from [androidx.print:print:1.0.0] /Users/abhinav/.gradle/caches/transforms-2/files-2.1/234d8388d3548014233e9d14d722b8ec/print-1.0.0/AndroidManifest.xml:20:5-44
MERGED from [com.google.android.datatransport:transport-api:2.2.0] /Users/abhinav/.gradle/caches/transforms-2/files-2.1/497b1c21e220f9880c8938f66260e356/transport-api-2.2.0/AndroidManifest.xml:18:5-20:41
MERGED from [com.google.android.datatransport:transport-api:2.2.0] /Users/abhinav/.gradle/caches/transforms-2/files-2.1/497b1c21e220f9880c8938f66260e356/transport-api-2.2.0/AndroidManifest.xml:18:5-20:41
INJECTED from /Users/abhinav/AndroidStudioProjects/iora/android/app/src/debug/AndroidManifest.xml
INJECTED from /Users/abhinav/AndroidStudioProjects/iora/android/app/src/debug/AndroidManifest.xml
	android:targetSdkVersion
		INJECTED from /Users/abhinav/AndroidStudioProjects/iora/android/app/src/main/AndroidManifest.xml
		INJECTED from /Users/abhinav/AndroidStudioProjects/iora/android/app/src/debug/AndroidManifest.xml
	android:minSdkVersion
		INJECTED from /Users/abhinav/AndroidStudioProjects/iora/android/app/src/main/AndroidManifest.xml
		INJECTED from /Users/abhinav/AndroidStudioProjects/iora/android/app/src/debug/AndroidManifest.xml
uses-permission#android.permission.INTERNET
ADDED from /Users/abhinav/AndroidStudioProjects/iora/android/app/src/debug/AndroidManifest.xml:6:5-66
MERGED from [com.google.firebase:firebase-iid:20.3.0] /Users/abhinav/.gradle/caches/transforms-2/files-2.1/16ff0cf0577ffee81fbb961f31e4a15f/firebase-iid-20.3.0/AndroidManifest.xml:23:5-67
MERGED from [com.google.firebase:firebase-iid:20.3.0] /Users/abhinav/.gradle/caches/transforms-2/files-2.1/16ff0cf0577ffee81fbb961f31e4a15f/firebase-iid-20.3.0/AndroidManifest.xml:23:5-67
MERGED from [com.google.android.gms:play-services-cloud-messaging:16.0.0] /Users/abhinav/.gradle/caches/transforms-2/files-2.1/56b20d2680d3becb2b1e2898e0d7e68f/play-services-cloud-messaging-16.0.0/AndroidManifest.xml:8:5-67
MERGED from [com.google.android.gms:play-services-cloud-messaging:16.0.0] /Users/abhinav/.gradle/caches/transforms-2/files-2.1/56b20d2680d3becb2b1e2898e0d7e68f/play-services-cloud-messaging-16.0.0/AndroidManifest.xml:8:5-67
MERGED from [com.google.firebase:firebase-installations:16.3.3] /Users/abhinav/.gradle/caches/transforms-2/files-2.1/48816b7743965e6514f5f46b21b35c7c/firebase-installations-16.3.3/AndroidManifest.xml:11:5-67
MERGED from [com.google.firebase:firebase-installations:16.3.3] /Users/abhinav/.gradle/caches/transforms-2/files-2.1/48816b7743965e6514f5f46b21b35c7c/firebase-installations-16.3.3/AndroidManifest.xml:11:5-67
MERGED from [com.google.android.datatransport:transport-backend-cct:2.2.0] /Users/abhinav/.gradle/caches/transforms-2/files-2.1/e49617b834d5223725efc2b50555e05b/transport-backend-cct-2.2.0/AndroidManifest.xml:26:5-67
MERGED from [com.google.android.datatransport:transport-backend-cct:2.2.0] /Users/abhinav/.gradle/caches/transforms-2/files-2.1/e49617b834d5223725efc2b50555e05b/transport-backend-cct-2.2.0/AndroidManifest.xml:26:5-67
	android:name
		ADDED from /Users/abhinav/AndroidStudioProjects/iora/android/app/src/debug/AndroidManifest.xml:6:22-64
service#io.flutter.plugins.firebasemessaging.FlutterFirebaseInstanceIDService
ADDED from [:firebase_messaging] /Users/abhinav/AndroidStudioProjects/iora/build/firebase_messaging/intermediates/library_manifest/debug/AndroidManifest.xml:8:9-12:19
	android:name
		ADDED from [:firebase_messaging] /Users/abhinav/AndroidStudioProjects/iora/build/firebase_messaging/intermediates/library_manifest/debug/AndroidManifest.xml:8:18-102
intent-filter#action:name:com.google.firebase.INSTANCE_ID_EVENT
ADDED from [:firebase_messaging] /Users/abhinav/AndroidStudioProjects/iora/build/firebase_messaging/intermediates/library_manifest/debug/AndroidManifest.xml:9:13-11:29
action#com.google.firebase.INSTANCE_ID_EVENT
ADDED from [:firebase_messaging] /Users/abhinav/AndroidStudioProjects/iora/build/firebase_messaging/intermediates/library_manifest/debug/AndroidManifest.xml:10:17-80
	android:name
		ADDED from [:firebase_messaging] /Users/abhinav/AndroidStudioProjects/iora/build/firebase_messaging/intermediates/library_manifest/debug/AndroidManifest.xml:10:25-77
service#io.flutter.plugins.firebasemessaging.FlutterFirebaseMessagingService
ADDED from [:firebase_messaging] /Users/abhinav/AndroidStudioProjects/iora/build/firebase_messaging/intermediates/library_manifest/debug/AndroidManifest.xml:13:9-17:19
	android:name
		ADDED from [:firebase_messaging] /Users/abhinav/AndroidStudioProjects/iora/build/firebase_messaging/intermediates/library_manifest/debug/AndroidManifest.xml:13:18-101
intent-filter#action:name:com.google.firebase.MESSAGING_EVENT
ADDED from [:firebase_messaging] /Users/abhinav/AndroidStudioProjects/iora/build/firebase_messaging/intermediates/library_manifest/debug/AndroidManifest.xml:14:13-16:29
action#com.google.firebase.MESSAGING_EVENT
ADDED from [:firebase_messaging] /Users/abhinav/AndroidStudioProjects/iora/build/firebase_messaging/intermediates/library_manifest/debug/AndroidManifest.xml:15:17-78
	android:name
		ADDED from [:firebase_messaging] /Users/abhinav/AndroidStudioProjects/iora/build/firebase_messaging/intermediates/library_manifest/debug/AndroidManifest.xml:15:25-75
service#com.google.firebase.messaging.FirebaseMessagingService
ADDED from [com.google.firebase:firebase-messaging:20.3.0] /Users/abhinav/.gradle/caches/transforms-2/files-2.1/164855cba05f8f2ade7d8c38e6002759/jetified-firebase-messaging-20.3.0/AndroidManifest.xml:28:9-35:19
	android:exported
		ADDED from [com.google.firebase:firebase-messaging:20.3.0] /Users/abhinav/.gradle/caches/transforms-2/files-2.1/164855cba05f8f2ade7d8c38e6002759/jetified-firebase-messaging-20.3.0/AndroidManifest.xml:31:13-37
	android:directBootAware
		ADDED from [com.google.firebase:firebase-messaging:20.3.0] /Users/abhinav/.gradle/caches/transforms-2/files-2.1/164855cba05f8f2ade7d8c38e6002759/jetified-firebase-messaging-20.3.0/AndroidManifest.xml:30:13-43
	android:name
		ADDED from [com.google.firebase:firebase-messaging:20.3.0] /Users/abhinav/.gradle/caches/transforms-2/files-2.1/164855cba05f8f2ade7d8c38e6002759/jetified-firebase-messaging-20.3.0/AndroidManifest.xml:29:13-82
service#com.google.firebase.components.ComponentDiscoveryService
ADDED from [com.google.firebase:firebase-messaging:20.3.0] /Users/abhinav/.gradle/caches/transforms-2/files-2.1/164855cba05f8f2ade7d8c38e6002759/jetified-firebase-messaging-20.3.0/AndroidManifest.xml:36:9-42:19
MERGED from [com.google.firebase:firebase-iid:20.3.0] /Users/abhinav/.gradle/caches/transforms-2/files-2.1/16ff0cf0577ffee81fbb961f31e4a15f/firebase-iid-20.3.0/AndroidManifest.xml:29:9-35:19
MERGED from [com.google.firebase:firebase-iid:20.3.0] /Users/abhinav/.gradle/caches/transforms-2/files-2.1/16ff0cf0577ffee81fbb961f31e4a15f/firebase-iid-20.3.0/AndroidManifest.xml:29:9-35:19
MERGED from [com.google.firebase:firebase-datatransport:17.0.3] /Users/abhinav/.gradle/caches/transforms-2/files-2.1/d61b137bc916b8e36dc814411fa98fb7/firebase-datatransport-17.0.3/AndroidManifest.xml:25:9-31:19
MERGED from [com.google.firebase:firebase-datatransport:17.0.3] /Users/abhinav/.gradle/caches/transforms-2/files-2.1/d61b137bc916b8e36dc814411fa98fb7/firebase-datatransport-17.0.3/AndroidManifest.xml:25:9-31:19
MERGED from [com.google.firebase:firebase-installations:16.3.3] /Users/abhinav/.gradle/caches/transforms-2/files-2.1/48816b7743965e6514f5f46b21b35c7c/firebase-installations-16.3.3/AndroidManifest.xml:14:9-20:19
MERGED from [com.google.firebase:firebase-installations:16.3.3] /Users/abhinav/.gradle/caches/transforms-2/files-2.1/48816b7743965e6514f5f46b21b35c7c/firebase-installations-16.3.3/AndroidManifest.xml:14:9-20:19
MERGED from [com.google.firebase:firebase-common:19.3.0] /Users/abhinav/.gradle/caches/transforms-2/files-2.1/bf906e7d37cc093574ca5862687568e6/jetified-firebase-common-19.3.0/AndroidManifest.xml:32:9-36:35
MERGED from [com.google.firebase:firebase-common:19.3.0] /Users/abhinav/.gradle/caches/transforms-2/files-2.1/bf906e7d37cc093574ca5862687568e6/jetified-firebase-common-19.3.0/AndroidManifest.xml:32:9-36:35
	android:exported
		ADDED from [com.google.firebase:firebase-messaging:20.3.0] /Users/abhinav/.gradle/caches/transforms-2/files-2.1/164855cba05f8f2ade7d8c38e6002759/jetified-firebase-messaging-20.3.0/AndroidManifest.xml:38:13-37
	tools:targetApi
		ADDED from [com.google.firebase:firebase-common:19.3.0] /Users/abhinav/.gradle/caches/transforms-2/files-2.1/bf906e7d37cc093574ca5862687568e6/jetified-firebase-common-19.3.0/AndroidManifest.xml:36:13-32
	android:directBootAware
		ADDED from [com.google.firebase:firebase-common:19.3.0] /Users/abhinav/.gradle/caches/transforms-2/files-2.1/bf906e7d37cc093574ca5862687568e6/jetified-firebase-common-19.3.0/AndroidManifest.xml:34:13-43
	android:name
		ADDED from [com.google.firebase:firebase-messaging:20.3.0] /Users/abhinav/.gradle/caches/transforms-2/files-2.1/164855cba05f8f2ade7d8c38e6002759/jetified-firebase-messaging-20.3.0/AndroidManifest.xml:37:13-84
meta-data#com.google.firebase.components:com.google.firebase.messaging.FirebaseMessagingRegistrar
ADDED from [com.google.firebase:firebase-messaging:20.3.0] /Users/abhinav/.gradle/caches/transforms-2/files-2.1/164855cba05f8f2ade7d8c38e6002759/jetified-firebase-messaging-20.3.0/AndroidManifest.xml:39:13-41:85
	android:value
		ADDED from [com.google.firebase:firebase-messaging:20.3.0] /Users/abhinav/.gradle/caches/transforms-2/files-2.1/164855cba05f8f2ade7d8c38e6002759/jetified-firebase-messaging-20.3.0/AndroidManifest.xml:41:17-82
	android:name
		ADDED from [com.google.firebase:firebase-messaging:20.3.0] /Users/abhinav/.gradle/caches/transforms-2/files-2.1/164855cba05f8f2ade7d8c38e6002759/jetified-firebase-messaging-20.3.0/AndroidManifest.xml:40:17-119
uses-permission#android.permission.ACCESS_NETWORK_STATE
ADDED from [com.google.firebase:firebase-iid:20.3.0] /Users/abhinav/.gradle/caches/transforms-2/files-2.1/16ff0cf0577ffee81fbb961f31e4a15f/firebase-iid-20.3.0/AndroidManifest.xml:22:5-79
MERGED from [com.google.android.gms:play-services-cloud-messaging:16.0.0] /Users/abhinav/.gradle/caches/transforms-2/files-2.1/56b20d2680d3becb2b1e2898e0d7e68f/play-services-cloud-messaging-16.0.0/AndroidManifest.xml:7:5-79
MERGED from [com.google.android.gms:play-services-cloud-messaging:16.0.0] /Users/abhinav/.gradle/caches/transforms-2/files-2.1/56b20d2680d3becb2b1e2898e0d7e68f/play-services-cloud-messaging-16.0.0/AndroidManifest.xml:7:5-79
MERGED from [com.google.firebase:firebase-installations:16.3.3] /Users/abhinav/.gradle/caches/transforms-2/files-2.1/48816b7743965e6514f5f46b21b35c7c/firebase-installations-16.3.3/AndroidManifest.xml:10:5-79
MERGED from [com.google.firebase:firebase-installations:16.3.3] /Users/abhinav/.gradle/caches/transforms-2/files-2.1/48816b7743965e6514f5f46b21b35c7c/firebase-installations-16.3.3/AndroidManifest.xml:10:5-79
MERGED from [com.google.android.datatransport:transport-backend-cct:2.2.0] /Users/abhinav/.gradle/caches/transforms-2/files-2.1/e49617b834d5223725efc2b50555e05b/transport-backend-cct-2.2.0/AndroidManifest.xml:25:5-79
MERGED from [com.google.android.datatransport:transport-backend-cct:2.2.0] /Users/abhinav/.gradle/caches/transforms-2/files-2.1/e49617b834d5223725efc2b50555e05b/transport-backend-cct-2.2.0/AndroidManifest.xml:25:5-79
MERGED from [com.google.android.datatransport:transport-runtime:2.2.0] /Users/abhinav/.gradle/caches/transforms-2/files-2.1/6fb88e117603281ede03dc0187fc04f0/transport-runtime-2.2.0/AndroidManifest.xml:22:5-79
MERGED from [com.google.android.datatransport:transport-runtime:2.2.0] /Users/abhinav/.gradle/caches/transforms-2/files-2.1/6fb88e117603281ede03dc0187fc04f0/transport-runtime-2.2.0/AndroidManifest.xml:22:5-79
	android:name
		ADDED from [com.google.firebase:firebase-iid:20.3.0] /Users/abhinav/.gradle/caches/transforms-2/files-2.1/16ff0cf0577ffee81fbb961f31e4a15f/firebase-iid-20.3.0/AndroidManifest.xml:22:22-76
uses-permission#android.permission.WAKE_LOCK
ADDED from [com.google.firebase:firebase-iid:20.3.0] /Users/abhinav/.gradle/caches/transforms-2/files-2.1/16ff0cf0577ffee81fbb961f31e4a15f/firebase-iid-20.3.0/AndroidManifest.xml:24:5-68
MERGED from [com.google.android.gms:play-services-cloud-messaging:16.0.0] /Users/abhinav/.gradle/caches/transforms-2/files-2.1/56b20d2680d3becb2b1e2898e0d7e68f/play-services-cloud-messaging-16.0.0/AndroidManifest.xml:9:5-68
MERGED from [com.google.android.gms:play-services-cloud-messaging:16.0.0] /Users/abhinav/.gradle/caches/transforms-2/files-2.1/56b20d2680d3becb2b1e2898e0d7e68f/play-services-cloud-messaging-16.0.0/AndroidManifest.xml:9:5-68
	android:name
		ADDED from [com.google.firebase:firebase-iid:20.3.0] /Users/abhinav/.gradle/caches/transforms-2/files-2.1/16ff0cf0577ffee81fbb961f31e4a15f/firebase-iid-20.3.0/AndroidManifest.xml:24:22-65
uses-permission#com.google.android.c2dm.permission.RECEIVE
ADDED from [com.google.firebase:firebase-iid:20.3.0] /Users/abhinav/.gradle/caches/transforms-2/files-2.1/16ff0cf0577ffee81fbb961f31e4a15f/firebase-iid-20.3.0/AndroidManifest.xml:26:5-82
MERGED from [com.google.android.gms:play-services-cloud-messaging:16.0.0] /Users/abhinav/.gradle/caches/transforms-2/files-2.1/56b20d2680d3becb2b1e2898e0d7e68f/play-services-cloud-messaging-16.0.0/AndroidManifest.xml:11:5-82
MERGED from [com.google.android.gms:play-services-cloud-messaging:16.0.0] /Users/abhinav/.gradle/caches/transforms-2/files-2.1/56b20d2680d3becb2b1e2898e0d7e68f/play-services-cloud-messaging-16.0.0/AndroidManifest.xml:11:5-82
	android:name
		ADDED from [com.google.firebase:firebase-iid:20.3.0] /Users/abhinav/.gradle/caches/transforms-2/files-2.1/16ff0cf0577ffee81fbb961f31e4a15f/firebase-iid-20.3.0/AndroidManifest.xml:26:22-79
meta-data#com.google.firebase.components:com.google.firebase.iid.Registrar
ADDED from [com.google.firebase:firebase-iid:20.3.0] /Users/abhinav/.gradle/caches/transforms-2/files-2.1/16ff0cf0577ffee81fbb961f31e4a15f/firebase-iid-20.3.0/AndroidManifest.xml:32:13-34:85
	android:value
		ADDED from [com.google.firebase:firebase-iid:20.3.0] /Users/abhinav/.gradle/caches/transforms-2/files-2.1/16ff0cf0577ffee81fbb961f31e4a15f/firebase-iid-20.3.0/AndroidManifest.xml:34:17-82
	android:name
		ADDED from [com.google.firebase:firebase-iid:20.3.0] /Users/abhinav/.gradle/caches/transforms-2/files-2.1/16ff0cf0577ffee81fbb961f31e4a15f/firebase-iid-20.3.0/AndroidManifest.xml:33:17-96
receiver#com.google.firebase.iid.FirebaseInstanceIdReceiver
ADDED from [com.google.firebase:firebase-iid:20.3.0] /Users/abhinav/.gradle/caches/transforms-2/files-2.1/16ff0cf0577ffee81fbb961f31e4a15f/firebase-iid-20.3.0/AndroidManifest.xml:37:9-44:20
	android:exported
		ADDED from [com.google.firebase:firebase-iid:20.3.0] /Users/abhinav/.gradle/caches/transforms-2/files-2.1/16ff0cf0577ffee81fbb961f31e4a15f/firebase-iid-20.3.0/AndroidManifest.xml:39:13-36
	android:permission
		ADDED from [com.google.firebase:firebase-iid:20.3.0] /Users/abhinav/.gradle/caches/transforms-2/files-2.1/16ff0cf0577ffee81fbb961f31e4a15f/firebase-iid-20.3.0/AndroidManifest.xml:40:13-73
	android:name
		ADDED from [com.google.firebase:firebase-iid:20.3.0] /Users/abhinav/.gradle/caches/transforms-2/files-2.1/16ff0cf0577ffee81fbb961f31e4a15f/firebase-iid-20.3.0/AndroidManifest.xml:38:13-78
intent-filter#action:name:com.google.android.c2dm.intent.RECEIVE
ADDED from [com.google.firebase:firebase-iid:20.3.0] /Users/abhinav/.gradle/caches/transforms-2/files-2.1/16ff0cf0577ffee81fbb961f31e4a15f/firebase-iid-20.3.0/AndroidManifest.xml:41:13-43:29
action#com.google.android.c2dm.intent.RECEIVE
ADDED from [com.google.firebase:firebase-iid:20.3.0] /Users/abhinav/.gradle/caches/transforms-2/files-2.1/16ff0cf0577ffee81fbb961f31e4a15f/firebase-iid-20.3.0/AndroidManifest.xml:42:17-81
	android:name
		ADDED from [com.google.firebase:firebase-iid:20.3.0] /Users/abhinav/.gradle/caches/transforms-2/files-2.1/16ff0cf0577ffee81fbb961f31e4a15f/firebase-iid-20.3.0/AndroidManifest.xml:42:25-78
meta-data#com.google.firebase.components:com.google.firebase.datatransport.TransportRegistrar
ADDED from [com.google.firebase:firebase-datatransport:17.0.3] /Users/abhinav/.gradle/caches/transforms-2/files-2.1/d61b137bc916b8e36dc814411fa98fb7/firebase-datatransport-17.0.3/AndroidManifest.xml:28:13-30:85
	android:value
		ADDED from [com.google.firebase:firebase-datatransport:17.0.3] /Users/abhinav/.gradle/caches/transforms-2/files-2.1/d61b137bc916b8e36dc814411fa98fb7/firebase-datatransport-17.0.3/AndroidManifest.xml:30:17-82
	android:name
		ADDED from [com.google.firebase:firebase-datatransport:17.0.3] /Users/abhinav/.gradle/caches/transforms-2/files-2.1/d61b137bc916b8e36dc814411fa98fb7/firebase-datatransport-17.0.3/AndroidManifest.xml:29:17-115
meta-data#com.google.firebase.components:com.google.firebase.installations.FirebaseInstallationsRegistrar
ADDED from [com.google.firebase:firebase-installations:16.3.3] /Users/abhinav/.gradle/caches/transforms-2/files-2.1/48816b7743965e6514f5f46b21b35c7c/firebase-installations-16.3.3/AndroidManifest.xml:17:13-19:85
	android:value
		ADDED from [com.google.firebase:firebase-installations:16.3.3] /Users/abhinav/.gradle/caches/transforms-2/files-2.1/48816b7743965e6514f5f46b21b35c7c/firebase-installations-16.3.3/AndroidManifest.xml:19:17-82
	android:name
		ADDED from [com.google.firebase:firebase-installations:16.3.3] /Users/abhinav/.gradle/caches/transforms-2/files-2.1/48816b7743965e6514f5f46b21b35c7c/firebase-installations-16.3.3/AndroidManifest.xml:18:17-127
provider#com.google.firebase.provider.FirebaseInitProvider
ADDED from [com.google.firebase:firebase-common:19.3.0] /Users/abhinav/.gradle/caches/transforms-2/files-2.1/bf906e7d37cc093574ca5862687568e6/jetified-firebase-common-19.3.0/AndroidManifest.xml:26:9-30:39
	android:authorities
		ADDED from [com.google.firebase:firebase-common:19.3.0] /Users/abhinav/.gradle/caches/transforms-2/files-2.1/bf906e7d37cc093574ca5862687568e6/jetified-firebase-common-19.3.0/AndroidManifest.xml:28:13-72
	android:exported
		ADDED from [com.google.firebase:firebase-common:19.3.0] /Users/abhinav/.gradle/caches/transforms-2/files-2.1/bf906e7d37cc093574ca5862687568e6/jetified-firebase-common-19.3.0/AndroidManifest.xml:29:13-37
	android:initOrder
		ADDED from [com.google.firebase:firebase-common:19.3.0] /Users/abhinav/.gradle/caches/transforms-2/files-2.1/bf906e7d37cc093574ca5862687568e6/jetified-firebase-common-19.3.0/AndroidManifest.xml:30:13-36
	android:name
		ADDED from [com.google.firebase:firebase-common:19.3.0] /Users/abhinav/.gradle/caches/transforms-2/files-2.1/bf906e7d37cc093574ca5862687568e6/jetified-firebase-common-19.3.0/AndroidManifest.xml:27:13-77
activity#com.google.android.gms.common.api.GoogleApiActivity
ADDED from [com.google.android.gms:play-services-base:17.0.0] /Users/abhinav/.gradle/caches/transforms-2/files-2.1/9a6a440fae8500321f7e065f9575f81d/play-services-base-17.0.0/AndroidManifest.xml:23:9-26:75
	android:exported
		ADDED from [com.google.android.gms:play-services-base:17.0.0] /Users/abhinav/.gradle/caches/transforms-2/files-2.1/9a6a440fae8500321f7e065f9575f81d/play-services-base-17.0.0/AndroidManifest.xml:25:13-37
	android:theme
		ADDED from [com.google.android.gms:play-services-base:17.0.0] /Users/abhinav/.gradle/caches/transforms-2/files-2.1/9a6a440fae8500321f7e065f9575f81d/play-services-base-17.0.0/AndroidManifest.xml:26:13-72
	android:name
		ADDED from [com.google.android.gms:play-services-base:17.0.0] /Users/abhinav/.gradle/caches/transforms-2/files-2.1/9a6a440fae8500321f7e065f9575f81d/play-services-base-17.0.0/AndroidManifest.xml:24:13-79
meta-data#com.google.android.gms.version
ADDED from [com.google.android.gms:play-services-basement:17.0.0] /Users/abhinav/.gradle/caches/transforms-2/files-2.1/8d186186a88bad6fd5383489af579974/jetified-play-services-basement-17.0.0/AndroidManifest.xml:23:9-25:69
	android:value
		ADDED from [com.google.android.gms:play-services-basement:17.0.0] /Users/abhinav/.gradle/caches/transforms-2/files-2.1/8d186186a88bad6fd5383489af579974/jetified-play-services-basement-17.0.0/AndroidManifest.xml:25:13-66
	android:name
		ADDED from [com.google.android.gms:play-services-basement:17.0.0] /Users/abhinav/.gradle/caches/transforms-2/files-2.1/8d186186a88bad6fd5383489af579974/jetified-play-services-basement-17.0.0/AndroidManifest.xml:24:13-58
service#com.google.android.datatransport.runtime.backends.TransportBackendDiscovery
ADDED from [com.google.android.datatransport:transport-backend-cct:2.2.0] /Users/abhinav/.gradle/caches/transforms-2/files-2.1/e49617b834d5223725efc2b50555e05b/transport-backend-cct-2.2.0/AndroidManifest.xml:29:9-35:19
MERGED from [com.google.android.datatransport:transport-runtime:2.2.0] /Users/abhinav/.gradle/caches/transforms-2/files-2.1/6fb88e117603281ede03dc0187fc04f0/transport-runtime-2.2.0/AndroidManifest.xml:36:9-38:40
MERGED from [com.google.android.datatransport:transport-runtime:2.2.0] /Users/abhinav/.gradle/caches/transforms-2/files-2.1/6fb88e117603281ede03dc0187fc04f0/transport-runtime-2.2.0/AndroidManifest.xml:36:9-38:40
	android:exported
		ADDED from [com.google.android.datatransport:transport-backend-cct:2.2.0] /Users/abhinav/.gradle/caches/transforms-2/files-2.1/e49617b834d5223725efc2b50555e05b/transport-backend-cct-2.2.0/AndroidManifest.xml:31:13-37
	android:name
		ADDED from [com.google.android.datatransport:transport-backend-cct:2.2.0] /Users/abhinav/.gradle/caches/transforms-2/files-2.1/e49617b834d5223725efc2b50555e05b/transport-backend-cct-2.2.0/AndroidManifest.xml:30:13-103
meta-data#backend:com.google.android.datatransport.cct.CctBackendFactory
ADDED from [com.google.android.datatransport:transport-backend-cct:2.2.0] /Users/abhinav/.gradle/caches/transforms-2/files-2.1/e49617b834d5223725efc2b50555e05b/transport-backend-cct-2.2.0/AndroidManifest.xml:32:13-34:39
	android:value
		ADDED from [com.google.android.datatransport:transport-backend-cct:2.2.0] /Users/abhinav/.gradle/caches/transforms-2/files-2.1/e49617b834d5223725efc2b50555e05b/transport-backend-cct-2.2.0/AndroidManifest.xml:34:17-36
	android:name
		ADDED from [com.google.android.datatransport:transport-backend-cct:2.2.0] /Users/abhinav/.gradle/caches/transforms-2/files-2.1/e49617b834d5223725efc2b50555e05b/transport-backend-cct-2.2.0/AndroidManifest.xml:33:17-94
service#com.google.android.datatransport.runtime.scheduling.jobscheduling.JobInfoSchedulerService
ADDED from [com.google.android.datatransport:transport-runtime:2.2.0] /Users/abhinav/.gradle/caches/transforms-2/files-2.1/6fb88e117603281ede03dc0187fc04f0/transport-runtime-2.2.0/AndroidManifest.xml:26:9-30:19
	android:exported
		ADDED from [com.google.android.datatransport:transport-runtime:2.2.0] /Users/abhinav/.gradle/caches/transforms-2/files-2.1/6fb88e117603281ede03dc0187fc04f0/transport-runtime-2.2.0/AndroidManifest.xml:28:13-37
	android:permission
		ADDED from [com.google.android.datatransport:transport-runtime:2.2.0] /Users/abhinav/.gradle/caches/transforms-2/files-2.1/6fb88e117603281ede03dc0187fc04f0/transport-runtime-2.2.0/AndroidManifest.xml:29:13-69
	android:name
		ADDED from [com.google.android.datatransport:transport-runtime:2.2.0] /Users/abhinav/.gradle/caches/transforms-2/files-2.1/6fb88e117603281ede03dc0187fc04f0/transport-runtime-2.2.0/AndroidManifest.xml:27:13-117
receiver#com.google.android.datatransport.runtime.scheduling.jobscheduling.AlarmManagerSchedulerBroadcastReceiver
ADDED from [com.google.android.datatransport:transport-runtime:2.2.0] /Users/abhinav/.gradle/caches/transforms-2/files-2.1/6fb88e117603281ede03dc0187fc04f0/transport-runtime-2.2.0/AndroidManifest.xml:32:9-34:40
	android:exported
		ADDED from [com.google.android.datatransport:transport-runtime:2.2.0] /Users/abhinav/.gradle/caches/transforms-2/files-2.1/6fb88e117603281ede03dc0187fc04f0/transport-runtime-2.2.0/AndroidManifest.xml:34:13-37
	android:name
		ADDED from [com.google.android.datatransport:transport-runtime:2.2.0] /Users/abhinav/.gradle/caches/transforms-2/files-2.1/6fb88e117603281ede03dc0187fc04f0/transport-runtime-2.2.0/AndroidManifest.xml:33:13-132
